hor_idSala;hor_idTurno;hor_idProfessor;hor_dia;hor_disciplina;hor_turmas
18;1;;1;;
18;1;;2;;
18;1;;3;;
18;1;;4;;
18;1;;5;;
18;1;;6;;
18;2;;1;;
18;2;;2;;
18;2;;3;;
18;2;;4;;
18;2;;5;;
18;2;;6;;
18;3;;1;;
18;3;;2;;
18;3;;3;;
18;3;;5;;
18;3;;6;;
18;4;;1;;
18;4;;2;;
18;4;;3;;
18;4;;5;;
18;5;;1;;
18;5;;3;;
18;5;;5;;
18;6;;2;;
18;6;;4;;
18;7;;2;;
18;7;;4;;
18;8;;2;;
18;8;;4;;
18;10;;1;;
18;10;;2;;
18;11;;1;;
18;11;;2;;
18;11;;3;;
18;11;;4;;
18;11;;5;;
18;12;;1;;
18;12;;2;;
18;12;;3;;
18;12;;4;;
18;12;;5;;
18;13;;1;;
18;13;;2;;
18;13;;3;;
18;13;;4;;
18;13;;5;;
18;14;;1;;
18;14;;2;;
18;14;;3;;
18;14;;5;;
19;1;;1;;
19;1;;2;;
19;1;;3;;
19;1;;4;;
19;1;;5;;
19;1;;6;;
19;2;;1;;
19;2;;2;;
19;2;;3;;
19;2;;4;;
19;2;;5;;
19;2;;6;;
19;3;;3;;
19;3;;4;;
19;3;;5;;
19;3;;6;;
19;4;;1;;
19;4;;2;;
19;4;;3;;
19;4;;4;;
19;4;;5;;
19;5;;1;;
19;5;;2;;
19;5;;3;;
19;5;;4;;
19;5;;5;;
19;6;;1;;
19;6;;2;;
19;6;;3;;
19;6;;5;;
19;7;;1;;
19;7;;2;;
19;7;;3;;
19;7;;5;;
19;8;;1;;
19;8;;2;;
19;8;;3;;
19;10;;1;;
19;10;;2;;
19;10;;3;;
19;10;;4;;
19;10;;5;;
19;11;;1;;
19;11;;2;;
19;11;;3;;
19;11;;4;;
19;11;;5;;
19;12;;2;;
19;12;;3;;
19;12;;4;;
19;12;;5;;
19;13;;1;;
19;13;;2;;
19;13;;3;;
19;13;;4;;
19;13;;5;;
19;14;;1;;
19;14;;2;;
19;14;;3;;
19;14;;4;;
19;14;;5;;
20;1;;1;;
20;1;;2;;
20;1;;3;;
20;1;;4;;
20;1;;5;;
20;1;;6;;
20;2;;1;;
20;2;;2;;
20;2;;3;;
20;2;;4;;
20;2;;5;;
20;2;;6;;
20;3;;1;;
20;3;;3;;
20;3;;4;;
20;3;;5;;
20;3;;6;;
20;4;;2;;
20;4;;2;;
20;4;;2;;
20;4;;2;;