500000515031000000196155000010001011
500000515090000000039231000010001011
500000515066000000030208000010001011
500000727031000000271257000060004000
500000727090000000054251000060004000
500000727066000000041773000060004000
500000491065000000237699000001000000
500000491090000000039617000001000000
500000684032000000346007000060005000
500000684090000000069201000060005000
500000670032000000346007000001000000
500000670090000000069201000001000000
500001022032000000346007000000000000
500001022090000000069201000000000000
500000989031000000090037000000000000
500000989090000000018008000000000000
500000989066000000013866000000000000
500000266032000000346007000000000000
500000266090000000069201000000000000
500000469032000000346007000060009000
500000469090000000069201000060009000
